<svg xmlns="http://www.w3.org/2000/svg" viewBox="0 0 1137.11 500">
  <path fill="#fff" d="M34.7 479.46h-2.92V456.6h-8.56v-2.66h20.05v2.66H34.7zM51.53 468v11.49h-2.89v-25.55h2.89v11.33h14.72v-11.33h2.88v25.52h-2.88V468zm43.25-11.44H79.21v8.71h13.93v2.63H79.21v8.93H95v2.63H76.33v-25.52h18.45zm28.55 23.33c-7.36 0-12.79-5.79-12.79-13.15s5.39-13.24 12.9-13.24a13.28 13.28 0 0 1 10 4.05l-2 2.11a11.1 11.1 0 0 0-8-3.5c-5.65 0-9.88 4.56-9.88 10.51s4.27 10.56 9.88 10.56c3.5 0 5.79-1.35 8.24-3.68l1.89 1.86a13.28 13.28 0 0 1-10.24 4.48zm38.99-.43h-3.1l-3-6.75h-13.87l-3 6.75h-2.95l11.6-25.7h2.7zm-13-22.35l-5.83 13h11.61zm30.27 15.35h-.15l-9.3-13.63v20.63h-2.8v-25.52h2.91l9.3 13.93 9.3-13.93h2.91v25.52h-2.88v-20.67zm28.41-2.01h-6.2v9H199v-25.51h9.55c5.76 0 9.55 3.06 9.55 8.13-.04 5.54-4.63 8.38-10.1 8.38zm.25-13.85h-6.45v11.23h6.31c4.23 0 7-2.26 7-5.65.04-3.68-2.7-5.58-6.82-5.58zm36.26 22.86h-3.1l-3-6.75h-13.87l-3 6.75h-2.95l11.63-25.7h2.69zm-13-22.35l-5.83 13h11.62zm21.15-3.17v25.52h-2.88v-25.52zM272 479.89c-8 0-13-5.83-13-13.15 0-7 5.14-13.24 12.79-13.24a13.46 13.46 0 0 1 9.52 3.39l-1.86 2.19a10.84 10.84 0 0 0-7.77-2.92c-5.65 0-9.7 4.78-9.7 10.51 0 6.11 3.91 10.64 10.1 10.64a12 12 0 0 0 7.37-2.56v-6.34h-7.77v-2.58h10.54V476a15.48 15.48 0 0 1-10.22 3.89zm35.46-25.95h2.81v25.52H308l-16.5-20.93v20.93h-2.81v-25.52h2.7l16.07 20.45zm39.28 2.66h-15.46v9.12h13.82v2.62h-13.82v11.12h-2.88v-25.52h18.34zm16.86 23.29a12.81 12.81 0 0 1-13-13.15 12.94 12.94 0 0 1 13.06-13.24c7.76 0 13 6.09 13 13.17a12.93 12.93 0 0 1-13.06 13.22zm0-23.73c-5.83 0-10 4.67-10 10.51s4.23 10.56 10.07 10.56 10-4.66 10-10.49-4.24-10.58-10.07-10.58zm36.69 23.3l-7.4-9.91h-7.29v9.91h-2.88v-25.52h11c5.62 0 9.23 3 9.23 7.62 0 4.27-2.92 6.74-6.93 7.47l7.84 10.43zm-6.82-22.86h-7.87V467h7.84c3.83 0 6.56-2 6.56-5.28s-2.41-5.12-6.53-5.12zm26.53-2.66h2.88v22.86h14.36v2.66H420zm32.93 25.95a13.2 13.2 0 0 1 .07-26.39c7.77 0 13 6.09 13 13.17a12.94 12.94 0 0 1-13.07 13.22zm0-23.73c-5.83 0-10 4.67-10 10.51s4.23 10.56 10.06 10.56 10-4.66 10-10.49-4.23-10.58-10.06-10.58zm27.83 23.3h-2.91v-10.1l-10.62-15.42h3.5l8.61 12.76 8.66-12.76h3.36l-10.61 15.38zm24.84.43a12.81 12.81 0 0 1-13-13.15 12.93 12.93 0 0 1 13.05-13.24c7.76 0 13 6.09 13 13.17a12.93 12.93 0 0 1-13.05 13.22zm0-23.73c-5.83 0-10 4.67-10 10.51s4.23 10.56 10.06 10.56 10-4.66 10-10.49-4.22-10.58-10.06-10.58zm19.12-2.22h2.88v22.86H542v2.66h-17.28zM571 479.46h-3.1l-3-6.75h-13.83l-3 6.75h-2.95l11.63-25.7h2.69zm-13-22.35l-5.83 13h11.62zm49.84 11.45c0 7.44-4.27 11.3-10.65 11.3s-10.61-3.86-10.61-11.08v-14.84h2.88v14.65c0 5.51 2.92 8.61 7.8 8.61 4.71 0 7.7-2.85 7.7-8.42v-14.84h2.88zm25.57-14.62h2.81v25.52h-2.3l-16.48-20.93v20.93h-2.81v-25.52h2.7l16.08 20.45zm13.14 0v25.52h-2.88v-25.52zm26.68 0h3.1l-11 25.7h-2.54l-11-25.7H655l9.08 22zm26.56 2.62h-15.57v8.71h13.93v2.63h-13.93v8.93H700v2.63h-18.66v-25.52h18.45zm23.53 22.9l-7.4-9.91h-7.29v9.91h-2.88v-25.52h11c5.62 0 9.22 3 9.22 7.62 0 4.27-2.91 6.74-6.92 7.47l7.84 10.43zm-6.82-22.86h-7.87V467h7.84c3.82 0 6.56-2 6.56-5.28s-2.41-5.12-6.53-5.12zm24.74 8.71c5.69 1.24 8.31 3.32 8.31 7.26 0 4.41-3.64 7.26-8.71 7.26a15 15 0 0 1-10.43-4.09l1.79-2.11a12.16 12.16 0 0 0 8.75 3.6c3.42 0 5.69-1.78 5.69-4.37 0-2.41-1.28-3.75-6.64-4.89-5.87-1.27-8.56-3.17-8.56-7.39s3.53-7 8.38-7a13.31 13.31 0 0 1 9 3.14l-1.68 2.22a11.22 11.22 0 0 0-7.37-2.77c-3.31 0-5.43 1.83-5.43 4.16s1.29 3.78 6.9 4.98zm17.3-11.37v25.52h-2.88v-25.52zm17.13 25.52h-2.92V456.6h-8.56v-2.66h20v2.66h-8.57zm24.85 0h-2.92v-10.1L787 453.94h3.5l8.6 12.76 8.68-12.76h3.36l-10.61 15.38zm44.88-25.52h2.81v25.52h-2.29l-16.48-20.93v20.93h-2.81v-25.52h2.7l16.07 20.45zm28.46 2.62h-15.57v8.71h13.93v2.63h-13.93v8.93H874v2.63h-18.59v-25.52h18.45zm21.42-2.69h2.36l7 21.32 7.29-21.25h3l-9.11 25.7h-2.42l-7-20.71-7 20.71H887l-9.11-25.7H881l7.3 21.25zm47.64 26.02a12.81 12.81 0 0 1-13-13.15 12.93 12.93 0 0 1 13-13.24c7.77 0 13 6.09 13 13.17a12.93 12.93 0 0 1-13 13.22zm0-23.73c-5.83 0-10 4.67-10 10.51s4.23 10.56 10.06 10.56 10-4.66 10-10.49-4.22-10.58-10.06-10.58zm36.7 23.3l-7.4-9.91h-7.3v9.91h-2.87v-25.52h11c5.61 0 9.22 3 9.22 7.62 0 4.27-2.92 6.74-6.93 7.47l7.84 10.43zm-6.82-22.86h-7.88V467h7.84c3.83 0 6.56-2 6.56-5.28s-2.4-5.12-6.52-5.12zm15.58-2.66h2.88v22.86h14.37v2.66h-17.25zm41 2.62h-15.56v8.71h13.92v2.63h-13.92v8.93h15.75v2.63h-18.64v-25.52h18.45zm29.73 22.9H1056l-3-6.75h-13.88l-3 6.75h-2.95l11.63-25.7h2.69zm-13-22.35l-5.83 13h11.62zm36.79-3.17h2.81v25.52h-2.3l-16.48-20.93v20.93h-2.81v-25.52h2.7l16.08 20.45zm19.16 11.37c5.69 1.24 8.31 3.32 8.31 7.26 0 4.41-3.65 7.26-8.71 7.26a15 15 0 0 1-10.43-4.09l1.79-2.11a12.16 12.16 0 0 0 8.75 3.6c3.42 0 5.68-1.78 5.68-4.37 0-2.41-1.27-3.75-6.63-4.89-5.87-1.27-8.57-3.17-8.57-7.39s3.54-7 8.38-7a13.29 13.29 0 0 1 9 3.14l-1.67 2.22a11.22 11.22 0 0 0-7.37-2.77c-3.31 0-5.43 1.83-5.43 4.16s1.28 3.78 6.9 4.98zM75.2 345.64H35.52v19h35.2v11.16h-35.2v28.43H23.25v-69.8h52zm71.29 58.63h-13l-7.08-16.85h-33l-7.18 16.85H73.69L104.41 334h11.37zm-36.6-55.64l-12 27.92h24zm60.52-14.16v69.8h-12.26v-69.8zm47.16 69.8h-12.36v-58.44h-22.14v-11.36h56.64v11.36h-22.14zm46.37-29.42v29.42h-12.27v-69.8h12.27v29h33.3v-29h12.27v69.8h-12.27v-29.42zm93.52 29.42v-69.8h5.18v69.8zm75.99 0l-49.16-62v62h-5v-69.8h4.88l48.16 60.72v-60.72h5v69.8zm77.07-65.02v65h-5.18v-65H481v-4.78h53.84v4.78zm85.16 65.02v-32.71H551v32.71h-5.19v-69.8H551v32.3h44.67v-32.3h5.19v69.8zm21.14 0v-69.8h49.66v4.78H622v27.42h40v4.79h-40v28h45v4.79zm145.29-58.63h-39.69v19h35.2v11.16h-35.2v28.43h-12.27v-69.8h52zm71.08 28.41c0 20.84-11.76 31.32-30 31.32s-29.71-10.48-29.71-30.72v-40.18h12.26v39.68c0 13 6.68 19.94 17.65 19.94s17.55-6.58 17.55-19.44v-40.18h12.26zm45.37 30.22H866.2v-58.44h-22.15v-11.36h56.65v11.36h-22.14zm92.73-30.22c0 20.84-11.77 31.32-30 31.32s-29.71-10.48-29.71-30.72v-40.18h12.26v39.68c0 13 6.68 19.94 17.65 19.94S959 387.51 959 374.65v-40.18h12.27zm60.62 30.22l-17.15-24.34H999.4v24.34h-12.26v-69.8h31.11c16 0 25.92 8.47 25.92 22.13 0 11.57-6.87 18.55-16.65 21.24l18.85 26.43zm-14.66-58.63H999.4v23.43h18c8.78 0 14.36-4.59 14.36-11.77-.05-7.68-5.43-11.66-14.51-11.66zm92.26-.21H1070v18.15h35v11h-35v18.72h40v11h-52.25v-69.8h51.75zM580 185.89s6.71-15.3 2.86-19.15-16.71-16.57-16.71-16.57-12.86 12.71-16.72 16.57 2.87 19.15 2.87 19.15-15.16-6-19-2.14-16.57 16.71-16.57 16.71 12.71 12.86 16.57 16.72 19-2.15 19-2.15-5.58 33.83-2.36 37.05l16.2 16.21s13-13 16.22-16.21S580 215 580 215s15.16 6 19 2.15 16.57-16.71 16.57-16.71-12.7-12.83-16.57-16.69-19 2.14-19 2.14zm-27.7-90.34s-6.72 15.3-2.87 19.15 16.71 16.57 16.71 16.57 12.86-12.71 16.72-16.57S580 95.55 580 95.55s15.16 6 19 2.14S615.59 81 615.59 81 602.87 68.12 599 64.26s-19 2.15-19 2.15 5.57-33.84 2.36-37l-16.21-16.25-16.21 16.21c-3.21 3.21 2.36 37 2.36 37s-15.16-6-19-2.15S516.71 81 516.71 81s12.71 12.86 16.57 16.72 19.02-2.17 19.02-2.17zM521 154.57s15.3 6.72 19.15 2.87 16.58-16.71 16.58-16.71S544 127.87 540.12 124 521 126.87 521 126.87s6-15.16 2.15-19-16.75-16.58-16.75-16.58-12.85 12.7-16.72 16.56 2.15 19 2.15 19-33.83-5.57-37-2.36-16.21 16.21-16.21 16.21l16.21 16.21c3.21 3.21 37-2.36 37-2.36s-6 15.16-2.15 19 16.72 16.58 16.72 16.58 12.85-12.72 16.72-16.58-2.12-18.98-2.12-18.98zm90.32-27.7S596 120.15 592.17 124s-16.58 16.71-16.58 16.71 12.72 12.86 16.58 16.72 19.15-2.86 19.15-2.86-6 15.16-2.14 19 16.7 16.57 16.7 16.57 12.86-12.71 16.72-16.57-2.14-19-2.14-19 33.83 5.57 37 2.36l16.19-16.21-16.19-16.22c-3.22-3.21-37 2.36-37 2.36s6-15.16 2.14-19-16.71-16.57-16.71-16.57S613 104 609.18 107.86s2.14 19.01 2.14 19.01zM23.07 428.61h1086.8v2.21H23.07z"/>
</svg>
